Quartus Files/1 bit full adder using 1 bit half adder as a component/simulation/qsim/Chen_Kevin_1BitFullAdderUsing1BitHalfAdderAsAComponent.msim.vcd
$comment
	File created using the following command:
		vcd file Chen_Kevin_1BitFullAdderUsing1BitHalfAdderAsAComponent.msim.vcd -direction
$end
$date
	Fri Feb 22 15:08:07 2019
$end
$version
	ModelSim Version 10.1d
$end
$timescale
	1ps
$end
$scope module Chen_Kevin_FullAdderLPM_vlg_vec_tst $end
$var reg 1 ! cin $end
$var reg 1 " dataa [0:0] $end
$var reg 1 # datab [0:0] $end
$var wire 1 $ cout $end
$var wire 1 % result [0] $end
$var wire 1 & sampler $end
$scope module i1 $end
$var wire 1 ' gnd $end
$var wire 1 ( vcc $end
$var wire 1 ) unknown $end
$var tri1 1 * devclrn $end
$var tri1 1 + devpor $end
$var tri1 1 , devoe $end
$var wire 1 - cin~combout $end
$var wire 1 . LPM_ADD_SUB_component|auto_generated|carry_eqn[0]~0_combout $end
$var wire 1 / LPM_ADD_SUB_component|auto_generated|sum_eqn[0]~0_combout $end
$var wire 1 0 dataa~combout [0] $end
$var wire 1 1 datab~combout [0] $end
$upscope $end
$upscope $end
$enddefinitions $end
#0
$dumpvars
0!
b0 "
b0 #
0$
0%
x&
0'
1(
x)
1*
1+
1,
0-
0.
0/
00
01
$end
#20000
b1 "
10
0&
1/
1%
#40000
b1 #
b0 "
11
00
1&
#60000
b1 "
10
0&
0/
1.
0%
1$
#80000
1!
b0 #
b0 "
1-
01
00
1&
1/
0.
1%
0$
#100000
b1 "
10
0&
0/
1.
0%
1$
#120000
b1 #
b0 "
11
00
1&
#140000
b1 "
10
0&
1/
1%
