Quartus Files/8 to 3 Encoder/simulation/qsim/Chen_Kevin_8To3Encoder.msim.vcd
$comment
	File created using the following command:
		vcd file Chen_Kevin_8To3Encoder.msim.vcd -direction
$end
$date
	Thu Feb 21 14:30:24 2019
$end
$version
	ModelSim Version 10.1d
$end
$timescale
	1ps
$end
$scope module Chen_Kevin_8T3Encoder_vlg_vec_tst $end
$var reg 1 ! Chen_Kevin_I1 $end
$var reg 1 " Chen_Kevin_I2 $end
$var reg 1 # Chen_Kevin_I3 $end
$var reg 1 $ Chen_Kevin_I4 $end
$var reg 1 % Chen_Kevin_I5 $end
$var reg 1 & Chen_Kevin_I6 $end
$var reg 1 ' Chen_Kevin_I7 $end
$var reg 1 ( Chen_Kevin_I8 $end
$var wire 1 ) Chen_Kevin_O1 $end
$var wire 1 * Chen_Kevin_O2 $end
$var wire 1 + Chen_Kevin_O3 $end
$var wire 1 , sampler $end
$scope module i1 $end
$var wire 1 - gnd $end
$var wire 1 . vcc $end
$var wire 1 / unknown $end
$var tri1 1 0 devclrn $end
$var tri1 1 1 devpor $end
$var tri1 1 2 devoe $end
$var wire 1 3 Chen_Kevin_I6~combout $end
$var wire 1 4 Chen_Kevin_I4~combout $end
$var wire 1 5 Chen_Kevin_I8~combout $end
$var wire 1 6 Chen_Kevin_I2~combout $end
$var wire 1 7 Chen_Kevin_O1~0_combout $end
$var wire 1 8 Chen_Kevin_I7~combout $end
$var wire 1 9 Chen_Kevin_I3~combout $end
$var wire 1 : Chen_Kevin_O2~0_combout $end
$var wire 1 ; Chen_Kevin_I5~combout $end
$var wire 1 < Chen_Kevin_O3~0_combout $end
$upscope $end
$upscope $end
$enddefinitions $end
#0
$dumpvars
1!
0"
0#
0$
0%
0&
0'
0(
0)
0*
0+
x,
0-
1.
x/
10
11
12
03
04
05
06
07
08
09
0:
0;
0<
$end
#20000
0!
1"
16
0,
17
1)
#40000
1#
0"
19
06
1,
1:
07
1*
0)
#60000
1$
0#
14
09
0,
17
1)
#80000
1%
0$
1;
04
1,
1<
0:
07
1+
0*
0)
#100000
1&
0%
13
0;
0,
17
1)
#120000
1'
0&
18
03
1,
1:
07
1*
0)
#140000
1(
0'
15
08
0,
17
1)
